…
missing <- findMissing(traj)
missing

##                  time    type
## 1 2015-09-10 07:00:02 MISSING
## 2 2015-09-10 07:00:03 MISSING
## 3 2015-09-10 07:00:24      NA
## 4 2015-09-10 07:00:34      NA

findMissing returns a data frame with two columns. The time column contains timestamps at which the function believes observations are missing. The type column indicates whether the observation is truly missing (i.e. was never recorded) or if the timestamp of the observation was set to NA during recording or during the importation of the data (e.g. because the date or time info were not formatted properly). You can then decide what to do about this missing data: ignore it, correct it with your own algorithm, or use the automated fixMissing function provided with the swaRm package.

traj01 <- fixMissing(traj) 
traj01[1:40, ]

## # A tibble: 40 x 5
##    id    time                  lon   lat error  
##    <chr> <dttm>              <dbl> <dbl> <chr>  
##  1 01    2015-09-10 07:00:00  15.8 -22.4 OK     
##  2 01    2015-09-10 07:00:01  15.8 -22.4 OK     
##  3 01    2015-09-10 07:00:02  NA    NA   MISSING
##  4 01    2015-09-10 07:00:03  NA    NA   MISSING
##  5 01    2015-09-10 07:00:04  15.8 -22.4 OK     
##  6 01    2015-09-10 07:00:05  15.8 -22.4 OK     
##  7 01    2015-09-10 07:00:06  NA   -22.4 OK     
##  8 01    2015-09-10 07:00:07  15.8  NA   OK     
##  9 01    2015-09-10 07:00:08  15.8 -22.4 OK     
## 10 01    2015-09-10 07:00:09  15.8 -22.4 OK     
## # ... with 30 more rows
…
swaRm contains a number of functions to help you characterize the trajectories that you are working with. We will go over these different functions in the rest of this section. Most of them should be self-explanatory and I will therefore only provide example code. Note that I will be using the mutate function of the dplyr package in order to quickly append the calculated statistics to the trajectory table.

Linear and cumulative distances between successive steps

traj01 <- mutate(traj01, 
                 linDist = linDist(x = lon, y = lat, geo = is.geo(traj01)),
                 cumDist = cumsum(linDist))
traj01

## Trajectory table [3600 observations]
## Number of tracks:  1 
## Type:  2D 
## Geographic:  TRUE 
## 
## # A tibble: 3,600 x 7
##    id    time                  lon   lat error         linDist cumDist
##    <chr> <dttm>              <dbl> <dbl> <chr>           <dbl>   <dbl>
##  1 01    2015-09-10 07:00:00  15.8 -22.4 OK              0       0    
##  2 01    2015-09-10 07:00:01  15.8 -22.4 OK              0.332   0.332
##  3 01    2015-09-10 07:00:02  15.8 -22.4 MISSING+LOCNA   0.197   0.529
##  4 01    2015-09-10 07:00:03  15.8 -22.4 MISSING+LOCNA   0.197   0.726
##  5 01    2015-09-10 07:00:04  15.8 -22.4 OK              0.197   0.923
##  6 01    2015-09-10 07:00:05  15.8 -22.4 OK              0.244   1.17 
##  7 01    2015-09-10 07:00:06  15.8 -22.4 LOCNA           0.327   1.49 
##  8 01    2015-09-10 07:00:07  15.8 -22.4 LOCNA           0.327   1.82 
##  9 01    2015-09-10 07:00:08  15.8 -22.4 OK              0.327   2.15 
## 10 01    2015-09-10 07:00:09  15.8 -22.4 OK              0.540   2.69 
## # ... with 3,590 more rows

Note that geo parameter of the linDist function is set to TRUE by the is.geo function in order to tell the linDist function that it will be handling geographic data. In this case, it uses the distGeo function from the geosphere package to return the distances in meters. If geo had been set to FALSE instead, the returned distances would have been in the units of the data. The same principle will apply for the functions calculating linear speeds and accelerations below.

Linear speeds between successive steps

traj01 <- mutate(traj01, 
                 linSpeed = linSpeed(x = lon, y = lat, t = time, geo = is.geo(traj01)))
traj01

## Trajectory table [3600 observations]
## Number of tracks:  1 
## Type:  2D 
## Geographic:  TRUE 
## 
## # A tibble: 3,600 x 8
##    id    time                  lon   lat error    linDist cumDist linSpeed
##    <chr> <dttm>              <dbl> <dbl> <chr>      <dbl>   <dbl>    <dbl>
##  1 01    2015-09-10 07:00:00  15.8 -22.4 OK         0       0       NA    
##  2 01    2015-09-10 07:00:01  15.8 -22.4 OK         0.332   0.332    0.332
##  3 01    2015-09-10 07:00:02  15.8 -22.4 MISSING…   0.197   0.529    0.197
##  4 01    2015-09-10 07:00:03  15.8 -22.4 MISSING…   0.197   0.726    0.197
##  5 01    2015-09-10 07:00:04  15.8 -22.4 OK         0.197   0.923    0.197
##  6 01    2015-09-10 07:00:05  15.8 -22.4 OK         0.244   1.17     0.244
##  7 01    2015-09-10 07:00:06  15.8 -22.4 LOCNA      0.327   1.49     0.327
##  8 01    2015-09-10 07:00:07  15.8 -22.4 LOCNA      0.327   1.82     0.327
##  9 01    2015-09-10 07:00:08  15.8 -22.4 OK         0.327   2.15     0.327
## 10 01    2015-09-10 07:00:09  15.8 -22.4 OK         0.540   2.69     0.540
## # ... with 3,590 more rows

Linear accelerations between successive steps

traj01 <- mutate(traj01,
                 linAcc = linAcc(x = lon, y = lat, t = time, geo = is.geo(traj01)))
traj01

## Trajectory table [3600 observations]
## Number of tracks:  1 
## Type:  2D 
## Geographic:  TRUE 
## 
## # A tibble: 3,600 x 9
##    id    time                  lon   lat error    linDist cumDist linSpeed
##    <chr> <dttm>              <dbl> <dbl> <chr>      <dbl>   <dbl>    <dbl>
##  1 01    2015-09-10 07:00:00  15.8 -22.4 OK         0       0       NA    
##  2 01    2015-09-10 07:00:01  15.8 -22.4 OK         0.332   0.332    0.332
##  3 01    2015-09-10 07:00:02  15.8 -22.4 MISSING…   0.197   0.529    0.197
##  4 01    2015-09-10 07:00:03  15.8 -22.4 MISSING…   0.197   0.726    0.197
##  5 01    2015-09-10 07:00:04  15.8 -22.4 OK         0.197   0.923    0.197
##  6 01    2015-09-10 07:00:05  15.8 -22.4 OK         0.244   1.17     0.244
##  7 01    2015-09-10 07:00:06  15.8 -22.4 LOCNA      0.327   1.49     0.327
##  8 01    2015-09-10 07:00:07  15.8 -22.4 LOCNA      0.327   1.82     0.327
##  9 01    2015-09-10 07:00:08  15.8 -22.4 OK         0.327   2.15     0.327
## 10 01    2015-09-10 07:00:09  15.8 -22.4 OK         0.540   2.69     0.540
## # ... with 3,590 more rows, and 1 more variable: linAcc <dbl>

Headings between successive steps

traj01 <- mutate(traj01,
                 heading = heading(x = lon, y = lat, geo = is.geo(traj01)))
traj01

## Trajectory table [3600 observations]
## Number of tracks:  1 
## Type:  2D 
## Geographic:  TRUE 
## 
## # A tibble: 3,600 x 10
##    id    time                  lon   lat error    linDist cumDist linSpeed
##    <chr> <dttm>              <dbl> <dbl> <chr>      <dbl>   <dbl>    <dbl>
##  1 01    2015-09-10 07:00:00  15.8 -22.4 OK         0       0       NA    
##  2 01    2015-09-10 07:00:01  15.8 -22.4 OK         0.332   0.332    0.332
##  3 01    2015-09-10 07:00:02  15.8 -22.4 MISSING…   0.197   0.529    0.197
##  4 01    2015-09-10 07:00:03  15.8 -22.4 MISSING…   0.197   0.726    0.197
##  5 01    2015-09-10 07:00:04  15.8 -22.4 OK         0.197   0.923    0.197
##  6 01    2015-09-10 07:00:05  15.8 -22.4 OK         0.244   1.17     0.244
##  7 01    2015-09-10 07:00:06  15.8 -22.4 LOCNA      0.327   1.49     0.327
##  8 01    2015-09-10 07:00:07  15.8 -22.4 LOCNA      0.327   1.82     0.327
##  9 01    2015-09-10 07:00:08  15.8 -22.4 OK         0.327   2.15     0.327
## 10 01    2015-09-10 07:00:09  15.8 -22.4 OK         0.540   2.69     0.540
## # ... with 3,590 more rows, and 2 more variables: linAcc <dbl>,
## #   heading <dbl>

As before, note that geo parameter of the heading function is set to TRUE by the is.geo function in order to tell the heading function that it will be handling geographic data. In this case, it uses the bearing function from the geosphere package to return the headings in radians. If geo had been set to FALSE instead, the heading would have been calculated using the atan2 function and returned in radians as well. The same principle will apply for the functions calculating angular speeds and accelerations below.

Angular speeds between successive steps

traj01 <- mutate(traj01,
                 angSpeed = angSpeed(x = lon, y = lat, t = time, geo = is.geo(traj01)))
traj01

## Trajectory table [3600 observations]
## Number of tracks:  1 
## Type:  2D 
## Geographic:  TRUE 
## 
## # A tibble: 3,600 x 11
##    id    time                  lon   lat error    linDist cumDist linSpeed
##    <chr> <dttm>              <dbl> <dbl> <chr>      <dbl>   <dbl>    <dbl>
##  1 01    2015-09-10 07:00:00  15.8 -22.4 OK         0       0       NA    
##  2 01    2015-09-10 07:00:01  15.8 -22.4 OK         0.332   0.332    0.332
##  3 01    2015-09-10 07:00:02  15.8 -22.4 MISSING…   0.197   0.529    0.197
##  4 01    2015-09-10 07:00:03  15.8 -22.4 MISSING…   0.197   0.726    0.197
##  5 01    2015-09-10 07:00:04  15.8 -22.4 OK         0.197   0.923    0.197
##  6 01    2015-09-10 07:00:05  15.8 -22.4 OK         0.244   1.17     0.244
##  7 01    2015-09-10 07:00:06  15.8 -22.4 LOCNA      0.327   1.49     0.327
##  8 01    2015-09-10 07:00:07  15.8 -22.4 LOCNA      0.327   1.82     0.327
##  9 01    2015-09-10 07:00:08  15.8 -22.4 OK         0.327   2.15     0.327
## 10 01    2015-09-10 07:00:09  15.8 -22.4 OK         0.540   2.69     0.540
## # ... with 3,590 more rows, and 3 more variables: linAcc <dbl>,
## #   heading <dbl>, angSpeed <dbl>
…
trajs

## Trajectory table [57600 observations]
## Number of tracks:  16 
## Type:  2D 
## Geographic:  TRUE 
## 
## # A tibble: 57,600 x 12
##    id    time                  lon   lat error    linDist cumDist linSpeed
##    <chr> <dttm>              <dbl> <dbl> <chr>      <dbl>   <dbl>    <dbl>
##  1 01    2015-09-10 07:00:00  15.8 -22.4 OK         0       0       NA    
##  2 01    2015-09-10 07:00:01  15.8 -22.4 OK         0.332   0.332    0.332
##  3 01    2015-09-10 07:00:02  15.8 -22.4 MISSING…   0.197   0.529    0.197
##  4 01    2015-09-10 07:00:03  15.8 -22.4 MISSING…   0.197   0.726    0.197
##  5 01    2015-09-10 07:00:04  15.8 -22.4 OK         0.197   0.923    0.197
##  6 01    2015-09-10 07:00:05  15.8 -22.4 OK         0.244   1.17     0.244
##  7 01    2015-09-10 07:00:06  15.8 -22.4 LOCNA      0.327   1.49     0.327
##  8 01    2015-09-10 07:00:07  15.8 -22.4 LOCNA      0.327   1.82     0.327
##  9 01    2015-09-10 07:00:08  15.8 -22.4 OK         0.327   2.15     0.327
## 10 01    2015-09-10 07:00:09  15.8 -22.4 OK         0.540   2.69     0.540
## # ... with 57,590 more rows, and 4 more variables: linAcc <dbl>,
## #   heading <dbl>, angSpeed <dbl>, angAcc <dbl>
…
Calculating the centroid of the trajectories

trajSummary <- group_by(trajs, time) %>%
  do(centroid(.$lon, .$lat, geo = TRUE)) %>%
  ungroup()

trajSummary

## Trajectory table [3600 observations]
## Number of tracks:  0 
## Type:  2D 
## Geographic:  TRUE 
## 
## # A tibble: 3,600 x 3
##    time                  lon   lat
##    <dttm>              <dbl> <dbl>
##  1 2015-09-10 07:00:00  15.8 -22.4
##  2 2015-09-10 07:00:01  15.8 -22.4
##  3 2015-09-10 07:00:02  15.8 -22.4
##  4 2015-09-10 07:00:03  15.8 -22.4
##  5 2015-09-10 07:00:04  15.8 -22.4
##  6 2015-09-10 07:00:05  15.8 -22.4
##  7 2015-09-10 07:00:06  15.8 -22.4
##  8 2015-09-10 07:00:07  15.8 -22.4
##  9 2015-09-10 07:00:08  15.8 -22.4
## 10 2015-09-10 07:00:09  15.8 -22.4
## # ... with 3,590 more rows
…
Calculating the distances to the centroid of the trajectories

trajs <- group_by(trajs, time) %>%
  mutate(distToCentroid = dist2centroid(lon, lat, geo = TRUE)) %>%
  ungroup()

trajs

## Trajectory table [57600 observations]
## Number of tracks:  16 
## Type:  2D 
## Geographic:  TRUE 
## 
## # A tibble: 57,600 x 13
##    id    time                  lon   lat error    linDist cumDist linSpeed
##    <chr> <dttm>              <dbl> <dbl> <chr>      <dbl>   <dbl>    <dbl>
##  1 01    2015-09-10 07:00:00  15.8 -22.4 OK         0       0       NA    
##  2 01    2015-09-10 07:00:01  15.8 -22.4 OK         0.332   0.332    0.332
##  3 01    2015-09-10 07:00:02  15.8 -22.4 MISSING…   0.197   0.529    0.197
##  4 01    2015-09-10 07:00:03  15.8 -22.4 MISSING…   0.197   0.726    0.197
##  5 01    2015-09-10 07:00:04  15.8 -22.4 OK         0.197   0.923    0.197
##  6 01    2015-09-10 07:00:05  15.8 -22.4 OK         0.244   1.17     0.244
##  7 01    2015-09-10 07:00:06  15.8 -22.4 LOCNA      0.327   1.49     0.327
##  8 01    2015-09-10 07:00:07  15.8 -22.4 LOCNA      0.327   1.82     0.327
##  9 01    2015-09-10 07:00:08  15.8 -22.4 OK         0.327   2.15     0.327
## 10 01    2015-09-10 07:00:09  15.8 -22.4 OK         0.540   2.69     0.540
## # ... with 57,590 more rows, and 5 more variables: linAcc <dbl>,
## #   heading <dbl>, angSpeed <dbl>, angAcc <dbl>, distToCentroid <dbl>
…
Determining the identity of and distance to the nearest neighbor

trajs <- group_by(trajs, time) %>%
  mutate(nearNeighbor = nn(lon, lat, id, geo = TRUE),
         nearNeighborDist = nnd(lon, lat, geo = TRUE))

trajs

## Trajectory table [57600 observations]
## Number of tracks:  16 
## Type:  2D 
## Geographic:  TRUE 
## 
## # A tibble: 57,600 x 15
## # Groups:   time [3,600]
##    id    time                  lon   lat error    linDist cumDist linSpeed
##    <chr> <dttm>              <dbl> <dbl> <chr>      <dbl>   <dbl>    <dbl>
##  1 01    2015-09-10 07:00:00  15.8 -22.4 OK         0       0       NA    
##  2 01    2015-09-10 07:00:01  15.8 -22.4 OK         0.332   0.332    0.332
##  3 01    2015-09-10 07:00:02  15.8 -22.4 MISSING…   0.197   0.529    0.197
##  4 01    2015-09-10 07:00:03  15.8 -22.4 MISSING…   0.197   0.726    0.197
##  5 01    2015-09-10 07:00:04  15.8 -22.4 OK         0.197   0.923    0.197
##  6 01    2015-09-10 07:00:05  15.8 -22.4 OK         0.244   1.17     0.244
##  7 01    2015-09-10 07:00:06  15.8 -22.4 LOCNA      0.327   1.49     0.327
##  8 01    2015-09-10 07:00:07  15.8 -22.4 LOCNA      0.327   1.82     0.327
##  9 01    2015-09-10 07:00:08  15.8 -22.4 OK         0.327   2.15     0.327
## 10 01    2015-09-10 07:00:09  15.8 -22.4 OK         0.540   2.69     0.540
## # ... with 57,590 more rows, and 7 more variables: linAcc <dbl>,
## #   heading <dbl>, angSpeed <dbl>, angAcc <dbl>, distToCentroid <dbl>,
## #   nearNeighbor <chr>, nearNeighborDist <dbl>
…
